<?xml version="1.0" encoding="UTF-8"?>
<svg width="1049px" height="161px" viewBox="0 0 1049 161" version="1.1" xmlns="http://www.w3.org/2000/svg" xmlns:xlink="http://www.w3.org/1999/xlink">
    <!-- Generator: Sketch 54.1 (76490) - https://sketchapp.com -->
    <title>form bandeau</title>
    <desc>Created with Sketch.</desc>
    <defs>
        <filter x="-1.2%" y="-7.8%" width="102.3%" height="115.7%" filterUnits="objectBoundingBox" id="filter-1">
            <feOffset dx="0" dy="2" in="SourceAlpha" result="shadowOffsetOuter1"></feOffset>
            <feGaussianBlur stdDeviation="2" in="shadowOffsetOuter1" result="shadowBlurOuter1"></feGaussianBlur>
            <feColorMatrix values="0 0 0 0 0   0 0 0 0 0   0 0 0 0 0  0 0 0 0.5 0" type="matrix" in="shadowBlurOuter1" result="shadowMatrixOuter1"></feColorMatrix>
            <feMerge>
                <feMergeNode in="shadowMatrixOuter1"></feMergeNode>
                <feMergeNode in="SourceGraphic"></feMergeNode>
            </feMerge>
        </filter>
        <rect id="path-2" x="0" y="0" width="1041" height="153" rx="6"></rect>
    </defs>
    <g id="La-Conciergerie-des-Petits" stroke="none" stroke-width="1" fill="none" fill-rule="evenodd">
        <g id="0---Accueil---laconciergeriedespetits" transform="translate(-116.000000, -2455.000000)">
            <g id="3---Abonnements" transform="translate(0.000000, 1295.000000)">
                <g id="offre-famille-nombreuse" filter="url(#filter-1)" transform="translate(120.000000, 1162.000000)">
                    <g id="Infinite-offre">
                        <g id="form-bandeau">
                            <g id="Oval-+-Path-2-Mask">
                                <mask id="mask-3" fill="white">
                                    <use xlink:href="#path-2"></use>
                                </mask>
                                <use id="Mask" fill="#01586C" xlink:href="#path-2"></use>
                                <ellipse id="Oval" fill-opacity="0.600000024" fill="#628FA4" mask="url(#mask-3)" cx="1068.69763" cy="1.5" rx="259" ry="314.5"></ellipse>
                                <path d="M-9.79418476,-58 C169.867027,86.728399 248.697633,213.546076 226.697633,322.453032 C204.697633,431.359987 89.7984223,416.772848 -118,278.691615 L-118,-50.6259702 L-9.79418476,-58 Z" id="Path-2" fill-opacity="0.600000024" fill="#628FA4" mask="url(#mask-3)"></path>
                            </g>
                        </g>
                    </g>
                </g>
            </g>
        </g>
    </g>
</svg>