{
    "abonnements":[
        {   
            "membre":"Membre",
            "name": "Infinite",
            "price": [
                {
                    "text": "60€ / mois / famille",
                    "info": "Résiliable sans préavis"
                },
                {
                    "text": "600€ / an / famille",
                    "info": "soit 2 mois offert !"
                }
            ],
            "offre": [
                "Concierge privé personnel 5j/7*",
                "Joingnable par téléphone, sms et WhatApp",
                "Accès aux services et prestations 7j/7",
                "Tarif préférentiel pour toutes prestations",
                "Prioritaire pour les stages de vancances scolaires", 
                "Demande et offre sur mesure",
                "Demande illimitée"
            ]
        },
        {
            "membre":"Membre",
            "name": "Platinium",
            "price": [
                {
                    "text": "90€ / mois / famille",
                    "info": "Résiliable sans préavis"
                },
                {
                    "text": "900€ / an / famille",
                    "info": "soit 2 mois offert !"
                }
            ],
            "offre": [
                "Concierge privé personnel 7j/7",
                "Joingnable par téléphone, sms et WhatApp",
                "Accès aux services et prestations 7j/7",
                "Tarif préférentiel pour toutes prestations",
                "Prioritaire pour les stages de vancances scolaires", 
                "Demande et offre sur mesure",
                "Demande illimitée"
            ]
        },
        {   
            "membre":"Non-membre",
            "name": "A la carte",
            "price": [
                {
                    "text": "Sans abonnement",
                    "info": "annuel ou mensuel"
                },
                {
                    "text": "Tarif public",
                    "info": "sans réductions"
                }
            ],
            "offre": [
                "Demande traitée du lundi au vendredi 9h-18h",
                "Accès aux services et prestations 7j/7",
                "Tarif public pour toutes prestations",
                "Stages vancances scolaires fonction des places disponible", 
                "Demande et offre sur mesure",
                "Demande illimitée",
                ""
            ]
        }
    ]
}